[gd_scene load_steps=6 format=2]

[ext_resource path="res://rock/Rock.gd" type="Script" id=1]
[ext_resource path="res://assets/rock.png" type="Texture" id=2]
[ext_resource path="res://explosion/Explosion.tscn" type="PackedScene" id=3]
[ext_resource path="res://assets/sounds/synthetic_thunder_short.wav" type="AudioStream" id=4]

[sub_resource type="PhysicsMaterial" id=1]
bounce = 0.5

[node name="Rock" type="RigidBody2D" groups=[
"rocks",
]]
position = Vector2( 64.2693, 58.5424 )
mass = 10.0
physics_material_override = SubResource( 1 )
linear_damp = 0.0
angular_damp = 0.0
script = ExtResource( 1 )
__meta__ = {
"_edit_group_": true
}

[node name="Sprite" type="Sprite" parent="."]
scale = Vector2( 0.5, 0.5 )
texture = ExtResource( 2 )
region_rect = Rect2( 214, 832, 212, 218 )

[node name="Explosion" parent="." instance=ExtResource( 3 )]

[node name="ExplodeSound" type="AudioStreamPlayer" parent="."]
stream = ExtResource( 4 )
volume_db = -10.0
[connection signal="animation_finished" from="Explosion/AnimationPlayer" to="." method="_on_AnimationPlayer_animation_finished"]

[editable path="Explosion"]
